{"page":1,"total_results":10000,"total_pages":500,"results":[{"popularity":2967.124,"vote_count":1413,"video":false,"poster_path":"https://image.tmdb.org/t/p/original/72I82eKXCadZWEYygV9GkJOQNEq.jpg","id":337401,"adult":false,"backdrop_path":"https://image.tmdb.org/t/p/original/zzWGRw277MNoCs3zhyG3YmYQsXv.jpg","original_language":"en","original_title":"Mulan","genre_ids":[28,12,18,14,10752],"title":"Mulan","vote_average":7.7,"overview":"Hua Mulan é a espirituosa e determinada filha mais velha de um honrado guerreiro. Quando o Imperador da China emite um decreto que um homem de cada família deve servir no exército imperial, Mulan decide tomar o lugar de seu pai, que está doente. Assumindo a identidade de Hua Jun, ela se disfarça de homem para combater os invasores que estão atacando sua nação, provando-se uma grande guerreira.","release_date":"2020-09-10","price":5.5},{"popularity":1556.396,"vote_count":29,"video":false,"poster_path":"https://image.tmdb.org/t/p/original/ugZW8ocsrfgI95pnQ7wrmKDxIe.jpg","id":724989,"adult":false,"backdrop_path":"https://image.tmdb.org/t/p/original/86L8wqGMDbwURPni2t7FQ0nDjsH.jpg","original_language":"en","original_title":"Hard Kill","genre_ids":[28,53],"title":"Hard Kill","vote_average":5,"overview":"O trabalho do bilionário CEO de tecnologia Donovan Chalmers (Willis) é tão valioso que ele contrata mercenários para protegê-lo e um grupo terrorista sequestra sua filha apenas para obtê-lo.","release_date":"2020-08-25","price":7.5},{"popularity":1423.28,"vote_count":50,"video":false,"poster_path":"https://image.tmdb.org/t/p/original/9Rj8l6gElLpRL7Kj17iZhrT5Zuw.jpg","id":734309,"adult":false,"backdrop_path":"https://image.tmdb.org/t/p/original/7fvdg211A2L0mHddvzyArRuRalp.jpg","original_language":"en","original_title":"Santana","genre_ids":[28],"title":"Santana","vote_average":5.7,"overview":"Dois policiais, dois irmãos. Um quer justiça, o outro vingança. Eles podem se matar antes de capturar os bandidos.","release_date":"2020-08-28","price":3},{"popularity":1316.733,"vote_count":131,"video":false,"poster_path":"https://image.tmdb.org/t/p/original/t28nWRyiwT2cI0KwXYLPwnNltUV.jpg","id":438396,"adult":false,"backdrop_path":"https://image.tmdb.org/t/p/original/qGZe9qTuydxyJYQ60XDtEckzLR8.jpg","original_language":"es","original_title":"Orígenes secretos","genre_ids":[18,53],"title":"Origens Secretas","vote_average":6.3,"overview":"Para deter um assassino em série, um meticuloso inspetor conta com a ajuda de um nerd apaixonado por quadrinhos.","release_date":"2020-08-28","price":6.5},{"popularity":1164.061,"id":718444,"video":false,"vote_count":186,"vote_average":5.9,"title":"Rogue","release_date":"2020-08-20","original_language":"en","original_title":"Rogue","genre_ids":[28],"backdrop_path":"https://image.tmdb.org/t/p/original/x4UkhIQuHIJyeeOTdcbZ3t3gBSa.jpg","adult":false,"overview":"Um esquadrão de soldados liderados por O'Hara estão sob a missão de resgatar a filha de um governador de seus captores em um lugar remoto da Africa. Mas quando as coisas dão errados, eles não tem que sobreviver não apenas ao encontro sangrento com uma gangue de rebeldes, mas também a uma horda de leões famintos.","poster_path":"https://image.tmdb.org/t/p/original/uOw5JD8IlD546feZ6oxbIjvN66P.jpg","price":6},{"popularity":1153.602,"vote_count":411,"video":false,"poster_path":"https://image.tmdb.org/t/p/original/dGVUiqnahQ4ZZRchGRpO2SyhtQY.jpg","id":581392,"adult":false,"backdrop_path":"https://image.tmdb.org/t/p/original/gEjNlhZhyHeto6Fy5wWy5Uk3A9D.jpg","original_language":"ko","original_title":"반도","genre_ids":[28,27,53],"title":"Invasão Zumbi 2: Península","vote_average":7.2,"overview":"A península coreana ficou devastada após o surto de zumbis que atingiu os passageiros de um trem-bala com destino a Busan há quatro anos. Com isso, um ex-soldado que conseguiu fugir do país, Jung-seok, tem a missão de retornar e acaba encontrando alguns sobreviventes.","release_date":"2020-07-15","price":7},{"popularity":877.67,"vote_count":1167,"video":false,"poster_path":"https://image.tmdb.org/t/p/original/38teDX74nsxkv2ysWvNT5EPXQ9E.jpg","id":605116,"adult":false,"backdrop_path":"https://image.tmdb.org/t/p/original/qVygtf2vU15L2yKS4Ke44U4oMdD.jpg","original_language":"en","original_title":"Project Power","genre_ids":[28,80,878],"title":"Power","vote_average":6.7,"overview":"Um ex-soldado, uma adolescente e um policial varrem New Orleans em busca de uma pílula perigosa que desperta superpoderes temporários.","release_date":"2020-08-14","price":3.5},{"popularity":799.439,"vote_count":0,"video":false,"poster_path":"https://image.tmdb.org/t/p/original/6CoRTJTmijhBLJTUNoVSUNxZMEI.jpg","id":694919,"adult":false,"backdrop_path":"https://image.tmdb.org/t/p/original/pq0JSpwyT2URytdFG0euztQPAyR.jpg","original_language":"en","original_title":"Money Plane","genre_ids":[28],"title":"Money Plane","vote_average":0,"overview":"Um ladrão profissional com dívidas de 40 milhões de dólares deve cometer um último golpe - roubar um cassino aéreo futurista cheio dos criminosos mais perigosos do mundo.","release_date":"2020-09-29","price":4.5},{"popularity":715.711,"vote_count":59,"video":false,"poster_path":"https://image.tmdb.org/t/p/original/xNYCXgfBZiFdPcSY5h1AGxly7W8.jpg","id":594328,"adult":false,"backdrop_path":"https://image.tmdb.org/t/p/original/lkeBhXGJFRlhI7cBWn8LQQAdZqK.jpg","original_language":"en","original_title":"Phineas and Ferb  The Movie Candace Against the Universe","genre_ids":[16,35,10402,878,10751,10770],"title":"Phineas e Ferb, O Filme: Candace Contra o Universo","vote_average":7.1,"overview":"Phineas e Ferb atravessam o universo para resgatar a irmã mais velha, Candance, que foi sequestrada por alienígenas e acabou achando um planeta livre dos irmãos irritantes.","release_date":"2020-08-28","price":6.5},{"popularity":712.517,"vote_count":71,"video":false,"poster_path":"https://image.tmdb.org/t/p/original/95KNDpdOgvIfIKzLgQbVZSZgba0.jpg","id":721452,"adult":false,"backdrop_path":"https://image.tmdb.org/t/p/original/riDrpqQtZpXGeiJdlmfcwwPH7nN.jpg","original_language":"en","original_title":"One Night in Bangkok","genre_ids":[28,53],"title":"Uma Noite em Bangkok","vote_average":7.2,"overview":"O melhor assassino do ramo faz sua 500ª matança e decide se aposentar. Em vez disso, ele se vê envolvido em uma feroz batalha de inteligência com o inimigo perfeito.","release_date":"2020-08-25","price":8},{"popularity":698.294,"id":539885,"video":false,"vote_count":257,"vote_average":6,"title":"Ava","release_date":"2020-08-06","original_language":"en","original_title":"Ava","genre_ids":[28,80,18,53],"backdrop_path":"https://image.tmdb.org/t/p/original/dbOqWLNWg1Xphshyus0UMSN8fFP.jpg","adult":false,"overview":"Eve é uma assassina, que trabalha matando alvos de alto-nível para uma organização secreta. Mas quando uma missão dá terrivelmente errado, ela é forçada a lutar pela própria sobrevivência.","poster_path":"https://image.tmdb.org/t/p/original/uobkkvvKCZbTKpJCMnvuTRQt5bV.jpg","price":8},{"popularity":674.23,"vote_count":73,"video":false,"poster_path":"https://image.tmdb.org/t/p/original/eDnHgozW8vfOaLHzfpHluf1GZCW.jpg","id":606234,"adult":false,"backdrop_path":"https://image.tmdb.org/t/p/original/u9YEh2xVAPVTKoaMNlB5tH6pXkm.jpg","original_language":"en","original_title":"Archive","genre_ids":[878],"title":"Archive","vote_average":5.9,"overview":"2038: George Almore está trabalhando em uma verdadeira IA equivalente a humanos. Seu último protótipo está quase pronto. Essa fase sensível também é a mais arriscada. Especialmente porque ele tem um objetivo que deve estar oculto a todo custo: reunir-se com sua esposa morta.","release_date":"2020-08-13","price":3.5},{"popularity":637.198,"vote_count":238,"video":false,"poster_path":"https://image.tmdb.org/t/p/original/kiX7UYfOpYrMFSAGbI6j1pFkLzQ.jpg","id":613504,"adult":false,"backdrop_path":"https://image.tmdb.org/t/p/original/r5srC0cqU36n38azFnCyReEksiR.jpg","original_language":"en","original_title":"After We Collided","genre_ids":[18,10749],"title":"After - Depois da Verdade","vote_average":7,"overview":"Após descobrir sobre a aposta, Tessa (Josephine Langford) tenta esquecer Hardin (Hero Fiennes Tiffin), o jovem caótico e revoltado que partiu seu coração. Porém, ela está prestes a descobrir que alguns amores não podem ser superados. Hardin sabe que cometeu o pior erro de sua vida ao ter magoado a jovem tão profundamente, mas vai lutar com toda a sua força para reconquistar o grande amor da sua vida.","release_date":"2020-09-02","price":9.5},{"popularity":548.295,"vote_count":101,"video":false,"poster_path":"https://image.tmdb.org/t/p/original/A11Ez4UkOE4Ysmtmur5Bho8qrGM.jpg","id":611395,"adult":false,"backdrop_path":"https://image.tmdb.org/t/p/original/qXACJOuyklS0BpvO8ALLkkrsv7W.jpg","original_language":"zh","original_title":"征途","genre_ids":[28,12,14],"title":"Mundo Duplo","vote_average":6.9,"overview":"Interessado em trazer honra ao seu clã, o jovem aldeão Dong Yilong embarca em uma perigosa jornada para competir em um torneio que seleciona guerreiros para a batalha.","release_date":"2020-07-24","price":10},{"popularity":531.852,"vote_count":79,"video":false,"poster_path":"https://image.tmdb.org/t/p/original/suVb5zxMvfoJ0ugvthas41KMDqq.jpg","id":632618,"adult":false,"backdrop_path":"https://image.tmdb.org/t/p/original/cVdYaAQmd5DZNdo0KFJruz7JpUs.jpg","original_language":"es","original_title":"Crímenes de familia","genre_ids":[80,18,53],"title":"Crimes de Família","vote_average":6.9,"overview":"Desesperada e confusa, Alícia faz de tudo para evitar que o filho seja preso por tentativa de assassinato.","release_date":"2020-08-20","price":8.5},{"popularity":510.347,"vote_count":134,"video":false,"poster_path":"https://image.tmdb.org/t/p/original/aVbqhqYtlxwEGihTEhewZAgDOCX.jpg","id":489326,"adult":false,"backdrop_path":"https://image.tmdb.org/t/p/original/dFB6Tiy3z2xRLbnEUB5ocApT5xG.jpg","original_language":"en","original_title":"Mortal","genre_ids":[28,14,53],"title":"Mortal","vote_average":6.8,"overview":"Uma aventura fantástica onde um jovem descobre que tem poderes divinos baseados na antiga mitologia norueguesa.","release_date":"2020-02-28","price":5.5},{"popularity":507.366,"vote_count":81,"video":false,"poster_path":"https://image.tmdb.org/t/p/original/hTFs6T2k0kdQHFcC4gisT0UtNX8.jpg","id":680028,"adult":false,"backdrop_path":"https://image.tmdb.org/t/p/original/kmxnUYcisJDED8oNNIRd9QwWYYP.jpg","original_language":"en","original_title":"Centigrade","genre_ids":[18,53],"title":"Centigrade","vote_average":7.1,"overview":"","release_date":"2020-08-28","price":10},{"popularity":492.505,"vote_count":10,"video":false,"poster_path":"https://image.tmdb.org/t/p/original/qHxqX3XMNvaCMXvvg3z4eRbB5eA.jpg","id":735110,"adult":false,"backdrop_path":"https://image.tmdb.org/t/p/original/aahbYclKYfms6Utm5YHQOywsj9N.jpg","original_language":"es","original_title":"Fuego negro","genre_ids":[28,27,9648,53],"title":"Fogo Sombrio","vote_average":5.4,"overview":"Em busca de sua irmã, um criminoso renegado busca respostas em um hotel sórdido onde encontra um hóspede sinistro e namora uma garçonete misteriosa.","release_date":"2020-08-21","price":8.5},{"popularity":487.736,"vote_count":5,"video":false,"poster_path":"https://image.tmdb.org/t/p/original/w6e0XZreiyW4mGlLRHEG8ipff7b.jpg","id":722603,"adult":false,"backdrop_path":"https://image.tmdb.org/t/p/original/m7QpUAeI2xTCJyAVl9J9z5dBTSb.jpg","original_language":"en","original_title":"Battlefield 2025","genre_ids":[28,27,878],"title":"Battlefield 2025","vote_average":5.6,"overview":"","release_date":"2020-07-07","price":4},{"popularity":480.131,"vote_count":26,"video":false,"poster_path":"https://image.tmdb.org/t/p/original/q2lkJf1TAjImTHCEO7XvbqPtnPb.jpg","id":703134,"adult":false,"backdrop_path":"https://image.tmdb.org/t/p/original/j57oUw8LIYvjOl0zs3A1A1UqwKH.jpg","original_language":"en","original_title":"Infamous","genre_ids":[80,18,53],"title":"Infamous","vote_average":5.5,"overview":"Arielle trabalha em um restaurante numa pequena cidade da Flórida. Quando ela se apaixona por um jovem criminoso recentemente suspenso, o arrasta de volta a uma vida de perigo, aprendendo que postar suas façanhas criminosas nas mídias sociais é um caminho fácil para a fama viral. Obcecados com o crescente número de seguidores, eles embarcam em uma aventura perigosa que leva a roubos, perseguições policiais e assassinatos.","release_date":"2020-06-12","price":8}]}